verif/coco_tb/py_uvm_tests/test1.vcd
$date
	Sat Nov  1 17:37:59 2025
$end
$version
	Icarus Verilog
$end
$timescale
	1ps
$end
$scope module anu_core $end
$var wire 1 ! b_hbar_w $end
$var wire 1 " clk $end
$var wire 32 # data_in [31:0] $end
$var wire 32 $ data_out [31:0] $end
$var wire 32 % instr [31:0] $end
$var wire 32 & mem_addr [31:0] $end
$var wire 1 ' pc_mode0_w $end
$var wire 1 ( pc_mode1_w $end
$var wire 32 ) pc_o [31:0] $end
$var wire 1 * rst_n $end
$var wire 1 + sig_w $end
$var wire 1 , stall $end
$var wire 1 - wen_w $end
$var wire 1 . zero_w $end
$var wire 3 / uop_w [2:0] $end
$var wire 1 0 st $end
$var wire 1 1 sign_w $end
$var wire 1 2 shift_op $end
$var wire 5 3 rs2_w [4:0] $end
$var wire 5 4 rs1_w [4:0] $end
$var wire 5 5 rd_w [4:0] $end
$var wire 32 6 rd_data_w [31:0] $end
$var wire 32 7 pc_w [31:0] $end
$var wire 2 8 pc_mode_w [1:0] $end
$var wire 32 9 pc_imm_w [31:0] $end
$var wire 32 : op2_w [31:0] $end
$var wire 32 ; op2_imm_w [31:0] $end
$var wire 32 < op1_w [31:0] $end
$var wire 32 = op1_pc_w [31:0] $end
$var wire 1 > lui $end
$var wire 1 ? ld $end
$var wire 1 @ jalr $end
$var wire 1 A jal $end
$var wire 32 B imm_w [31:0] $end
$var wire 1 C i_frame $end
$var wire 1 D f7_w $end
$var wire 32 E extended_data_in [31:0] $end
$var wire 32 F data_wb_w [31:0] $end
$var wire 16 G ctrlSig_w [15:0] $end
$var wire 1 H bypass_w $end
$var wire 1 I branch_op $end
$var wire 1 J auipc $end
$var wire 32 K alu_out_w [31:0] $end
$var wire 32 L alu_out_imm_w [31:0] $end
$var wire 1 M alu_op $end
$var reg 3 N alu_uop_r [2:0] $end
$var reg 1 O branch_r $end
$var reg 32 P data_wb_r [31:0] $end
$var reg 2 Q mem_access_mode [1:0] $end
$var reg 2 R mem_access_mode_r [1:0] $end
$var reg 5 S rd_r [4:0] $end
$var reg 1 T valid_f7_r $end
$var reg 1 U wen_r $end
$scope module alu_inst $end
$var wire 1 T f7 $end
$var wire 32 V op1 [31:0] $end
$var wire 32 W op2 [31:0] $end
$var wire 1 * rst_n $end
$var wire 3 X uop [2:0] $end
$var wire 1 . zero $end
$var wire 32 Y SR_unsigned [31:0] $end
$var wire 32 Z SR_signed [31:0] $end
$var parameter 3 [ ADD_SUB $end
$var parameter 3 \ AND $end
$var parameter 3 ] OR $end
$var parameter 3 ^ SL $end
$var parameter 3 _ SLT $end
$var parameter 3 ` SLTU $end
$var parameter 3 a SR $end
$var parameter 3 b XOR $end
$var reg 32 c out [31:0] $end
$upscope $end
$scope module ext32 $end
$var wire 1 ! b_hbar $end
$var wire 1 H bypass $end
$var wire 32 d data_in [31:0] $end
$var wire 1 + sig $end
$var wire 32 e z_extend8_w [31:0] $end
$var wire 32 f z_extend16_w [31:0] $end
$var wire 32 g s_extend8_w [31:0] $end
$var wire 32 h s_extend16_w [31:0] $end
$var reg 32 i data_out [31:0] $end
$scope module sE16 $end
$var wire 16 j data_in [15:0] $end
$var wire 32 k data_out [31:0] $end
$var parameter 32 l WIDTH $end
$upscope $end
$scope module sE8 $end
$var wire 8 m data_in [7:0] $end
$var wire 32 n data_out [31:0] $end
$var parameter 32 o WIDTH $end
$upscope $end
$scope module zE16 $end
$var wire 16 p data_in [15:0] $end
$var wire 32 q data_out [31:0] $end
$var parameter 32 r WIDTH $end
$upscope $end
$scope module zE8 $end
$var wire 8 s data_in [7:0] $end
$var wire 32 t data_out [31:0] $end
$var parameter 32 u WIDTH $end
$upscope $end
$upscope $end
$scope module instr_decode_inst $end
$var wire 32 v instr [31:0] $end
$var wire 1 * rst_n $end
$var wire 5 w rs2 [4:0] $end
$var wire 5 x rs1 [4:0] $end
$var wire 5 y rd [4:0] $end
$var wire 7 z opcode [6:0] $end
$var wire 32 { imm [31:0] $end
$var wire 1 D f7 $end
$var wire 16 | ctrlSig [15:0] $end
$var wire 3 } alu_uop [2:0] $end
$scope module extract_imm_inst $end
$var wire 32 ~ instr [31:0] $end
$var wire 1 * rst_n $end
$var wire 16 !" ctrlSig [15:0] $end
$var reg 32 "" imm [31:0] $end
$upscope $end
$scope module uCode $end
$var wire 3 #" alu_uop [2:0] $end
$var wire 16 $" ctrlSig [15:0] $end
$var wire 7 %" opcode [6:0] $end
$var wire 1 &" shift_op $end
$var reg 16 '" ctrlSig_t [15:0] $end
$upscope $end
$upscope $end
$scope module pc $end
$var wire 1 " clk $end
$var wire 32 (" imm [31:0] $end
$var wire 2 )" mode [1:0] $end
$var wire 1 * rst_n $end
$var parameter 2 *" BRANCH $end
$var parameter 2 +" INCR $end
$var parameter 2 ," JALR $end
$var parameter 2 -" STALL $end
$var reg 32 ." pc_o [31:0] $end
$var reg 32 /" pc_r [31:0] $end
$upscope $end
$scope module register_file_inst $end
$var event 1 0" _ivl_2 $end
$var wire 5 1" rd [4:0] $end
$var wire 32 2" rd_data [31:0] $end
$var wire 1 3" ren $end
$var wire 5 4" rs1 [4:0] $end
$var wire 5 5" rs2 [4:0] $end
$var wire 1 * rst_n $end
$var wire 1 U wen $end
$var reg 32 6" o1 [31:0] $end
$var reg 32 7" o2 [31:0] $end
$scope begin register_file[0] $end
$var parameter 2 8" i $end
$upscope $end
$scope begin register_file[1] $end
$var parameter 2 9" i $end
$upscope $end
$scope begin register_file[2] $end
$var parameter 3 :" i $end
$upscope $end
$scope begin register_file[3] $end
$var parameter 3 ;" i $end
$upscope $end
$scope begin register_file[4] $end
$var parameter 4 <" i $end
$upscope $end
$scope begin register_file[5] $end
$var parameter 4 =" i $end
$upscope $end
$scope begin register_file[6] $end
$var parameter 4 >" i $end
$upscope $end
$scope begin register_file[7] $end
$var parameter 4 ?" i $end
$upscope $end
$scope begin register_file[8] $end
$var parameter 5 @" i $end
$upscope $end
$scope begin register_file[9] $end
$var parameter 5 A" i $end
$upscope $end
$scope begin register_file[10] $end
$var parameter 5 B" i $end
$upscope $end
$scope begin register_file[11] $end
$var parameter 5 C" i $end
$upscope $end
$scope begin register_file[12] $end
$var parameter 5 D" i $end
$upscope $end
$scope begin register_file[13] $end
$var parameter 5 E" i $end
$upscope $end
$scope begin register_file[14] $end
$var parameter 5 F" i $end
$upscope $end
$scope begin register_file[15] $end
$var parameter 5 G" i $end
$upscope $end
$scope begin register_file[16] $end
$var parameter 6 H" i $end
$upscope $end
$scope begin register_file[17] $end
$var parameter 6 I" i $end
$upscope $end
$scope begin register_file[18] $end
$var parameter 6 J" i $end
$upscope $end
$scope begin register_file[19] $end
$var parameter 6 K" i $end
$upscope $end
$scope begin register_file[20] $end
$var parameter 6 L" i $end
$upscope $end
$scope begin register_file[21] $end
$var parameter 6 M" i $end
$upscope $end
$scope begin register_file[22] $end
$var parameter 6 N" i $end
$upscope $end
$scope begin register_file[23] $end
$var parameter 6 O" i $end
$upscope $end
$scope begin register_file[24] $end
$var parameter 6 P" i $end
$upscope $end
$scope begin register_file[25] $end
$var parameter 6 Q" i $end
$upscope $end
$scope begin register_file[26] $end
$var parameter 6 R" i $end
$upscope $end
$scope begin register_file[27] $end
$var parameter 6 S" i $end
$upscope $end
$scope begin register_file[28] $end
$var parameter 6 T" i $end
$upscope $end
$scope begin register_file[29] $end
$var parameter 6 U" i $end
$upscope $end
$scope begin register_file[30] $end
$var parameter 6 V" i $end
$upscope $end
$scope begin register_file[31] $end
$var parameter 6 W" i $end
$upscope $end
$upscope $end
$upscope $end
$enddefinitions $end
$comment Show the parameter values. $end
$dumpall
b11111 W"
b11110 V"
b11101 U"
b11100 T"
b11011 S"
b11010 R"
b11001 Q"
b11000 P"
b10111 O"
b10110 N"
b10101 M"
b10100 L"
b10011 K"
b10010 J"
b10001 I"
b10000 H"
b1111 G"
b1110 F"
b1101 E"
b1100 D"
b1011 C"
b1010 B"
b1001 A"
b1000 @"
b111 ?"
b110 >"
b101 ="
b100 <"
b11 ;"
b10 :"
b1 9"
b0 8"
b0 -"
b10 ,"
b1 +"
b11 *"
b1000 u
b10000 r
b1000 o
b10000 l
b100 b
b101 a
b11 `
b10 _
b1 ^
b110 ]
b111 \
b0 [
$end
#0
$dumpvars
bx 7"
bx 6"
bz 5"
bz 4"
13"
bx 2"
bz 1"
10"
bx /"
bx ."
bx )"
bx ("
bx '"
x&"
bz %"
bx $"
bz #"
b0 ""
bx !"
bz ~
bz }
bx |
b0 {
bz z
bz y
bz x
bz w
bz v
b0zzzzzzzz t
bz s
b0zzzzzzzzzzzzzzzz q
bz p
bz n
bz m
bz k
bz j
b0zzzzzzzzzzzzzzzz i
bz h
bz g
b0zzzzzzzzzzzzzzzz f
b0zzzzzzzz e
bz d
bx c
bx Z
bx Y
bx X
bx W
bx V
xU
xT
bz S
b0 R
b0 Q
bx P
0O
bx N
xM
bx L
bx K
xJ
xI
zH
bx G
bx F
b0zzzzzzzzzzzzzzzz E
zD
xC
b0 B
xA
x@
x?
x>
bx =
bx <
bx ;
bx :
bx 9
bx 8
bx 7
bx 6
bz 5
bz 4
bz 3
x2
z1
x0
bz /
x.
x-
z,
z+
1*
bx )
x(
x'
bx &
bz %
bx $
bz #
0"
z!
$end
#500
b0 Z
b0 Y
b0 =
b0 V
b0x00 6
b0x00 2"
b0 )
b0 7
b0 ."
b0 S
b0 1"
b0 P
0U
b0xxxxxxxxxxxxxxxx F
1.
b0 9
b0 ("
b0 L
b0 ;
b0 W
b0 &
b0 K
b0 c
b0 $
b0 :
b0 7"
b0 <
b0 6"
1"
0*
#1000
0"
#1500
0&"
1!
b0 F
11
1H
bx0 N
bx0 X
b0 E
b0 i
b0 e
b0 t
b0 s
b0 f
b0 q
b0 p
b0 g
b0 n
b0 m
b0 h
b0 k
b0 j
1D
b101 3
b101 w
b101 5"
b11001 4
b11001 x
b11001 4"
b0 5
b0 y
b110 /
b110 }
b110 #"
b10011 z
b10011 %"
b0 #
b0 d
b11100100010111001110000000010011 %
b11100100010111001110000000010011 v
b11100100010111001110000000010011 ~
0,
bx 6
bx 2"
bx )
bx 7
bx ."
b0 ;
b0 W
bx Z
bx Y
bx =
bx V
b0 $
b0 :
b0 7"
b0 <
b0 6"
1"
1*
#2000
xU
0"
#2500
x&"
0!
0H
0T
bx0x N
bx0x X
0D
b1110 3
b1110 w
b1110 5"
b0 4
b0 x
b0 4"
b11000 5
b11000 y
b101 /
b101 }
b101 #"
b111000000101110000010011 %
b111000000101110000010011 v
b111000000101110000010011 ~
0U
1"
#3000
b11000 S
b11000 1"
xU
0"
#3500
0&"
1H
bx N
bx X
b11110 3
b11110 w
b11110 5"
b1 4
b1 x
b1 4"
b10110 5
b10110 y
b111 /
b111 }
b111 #"
b110011 z
b110011 %"
b1111000001111101100110011 %
b1111000001111101100110011 v
b1111000001111101100110011 ~
0U
1"
#4000
b10110 S
b10110 1"
xU
0"
#4500
x&"
0H
bx0x N
bx0x X
b11 3
b11 w
b11 5"
b1000 4
b1000 x
b1000 4"
b1101 5
b1101 y
b101 /
b101 }
b101 #"
b1101000101011010110011 %
b1101000101011010110011 v
b1101000101011010110011 ~
0U
1"
#5000
b1101 S
b1101 1"
xU
0"
#5500
0&"
1!
1H
bx0 N
bx0 X
b1000 3
b1000 w
b1000 5"
b1110 4
b1110 x
b1110 4"
b11100 5
b11100 y
b110 /
b110 }
b110 #"
b100001110110111000110011 %
b100001110110111000110011 v
b100001110110111000110011 ~
0U
1"
#6000
b11100 S
b11100 1"
xU
0"
#6500
0H
bx00 N
bx00 X
b11100 3
b11100 w
b11100 5"
b0 4
b0 x
b0 4"
b10 5
b10 y
b100 /
b100 }
b100 #"
b10011 z
b10011 %"
b100011110000000100000100010011 %
b100011110000000100000100010011 v
b100011110000000100000100010011 ~
0U
1"
#7000
b10 S
b10 1"
xU
0"
#7500
bx F
x.
bx 9
bx ("
bx L
bx &
bx K
bx c
01
xT
b0 N
b0 X
1D
b11000 3
b11000 w
b11000 5"
b11110 4
b11110 x
b11110 4"
b0 5
b0 y
b0 /
b0 }
b0 #"
b110011 z
b110011 %"
b1000001100011110000000000110011 %
b1000001100011110000000000110011 v
b1000001100011110000000000110011 ~
0U
1"
#8000
b0 S
b0 1"
bx P
xU
0"
#8500
11
1H
0T
bx0 N
bx0 X
0D
b11100 3
b11100 w
b11100 5"
b110 4
b110 x
b110 4"
b10000 5
b10000 y
b110 /
b110 }
b110 #"
b1110000110110100000110011 %
b1110000110110100000110011 v
b1110000110110100000110011 ~
0U
1"
#9000
b10000 S
b10000 1"
xU
0"
#9500
0H
xT
bx00 N
bx00 X
1D
b1011 3
b1011 w
b1011 5"
b11100 5
b11100 y
b100 /
b100 }
b100 #"
b10011 z
b10011 %"
b11100010101100110100111000010011 %
b11100010101100110100111000010011 v
b11100010101100110100111000010011 ~
0U
1"
#10000
b11100 S
b11100 1"
xU
0"
#10500
1H
0T
bx0 N
bx0 X
0D
b10000 3
b10000 w
b10000 5"
b11110 4
b11110 x
b11110 4"
b11010 5
b11010 y
b110 /
b110 }
b110 #"
b110011 z
b110011 %"
b1000011110110110100110011 %
b1000011110110110100110011 v
b1000011110110110100110011 ~
0U
1"
#11000
b11010 S
b11010 1"
xU
0"
#11500
b10110 3
b10110 w
b10110 5"
b0 4
b0 x
b0 4"
b10111 5
b10111 y
b1011000000110101110110011 %
b1011000000110101110110011 v
b1011000000110101110110011 ~
0U
1"
#12000
b10111 S
b10111 1"
xU
0"
#12500
x&"
0!
0H
xT
bx0x N
bx0x X
1D
b10111 3
b10111 w
b10111 5"
b10 4
b10 x
b10 4"
b101 /
b101 }
b101 #"
b1000001011100010101101110110011 %
b1000001011100010101101110110011 v
b1000001011100010101101110110011 ~
0U
1"
#13000
xU
0"
#13500
0T
0D
b101 3
b101 w
b101 5"
b1010 4
b1010 x
b1010 4"
b10100 5
b10100 y
b10101010101101000110011 %
b10101010101101000110011 v
b10101010101101000110011 ~
0U
1"
#14000
b10100 S
b10100 1"
xU
0"
#14500
b10111 3
b10111 w
b10111 5"
b1 4
b1 x
b1 4"
b11101 5
b11101 y
b10011 z
b10011 %"
b1011100001101111010010011 %
b1011100001101111010010011 v
b1011100001101111010010011 ~
0U
1"
#15000
b11101 S
b11101 1"
xU
0"
#15500
01
b0x N
b0x X
b110 3
b110 w
b110 5"
b10010 4
b10010 x
b10010 4"
b111 5
b111 y
b1 /
b1 }
b1 #"
b110011 z
b110011 %"
b11010010001001110110011 %
b11010010001001110110011 v
b11010010001001110110011 ~
0U
1"
#16000
b111 S
b111 1"
xU
0"
#16500
0&"
1!
11
xT
bx00 N
bx00 X
1D
b10111 3
b10111 w
b10111 5"
b10111 4
b10111 x
b10111 4"
b1111 5
b1111 y
b100 /
b100 }
b100 #"
b10011 z
b10011 %"
b11110011011110111100011110010011 %
b11110011011110111100011110010011 v
b11110011011110111100011110010011 ~
0U
1"
#17000
b1111 S
b1111 1"
xU
0"
#17500
0T
0D
b10011 3
b10011 w
b10011 5"
b10010 4
b10010 x
b10010 4"
b0 5
b0 y
b110011 z
b110011 %"
b1001110010100000000110011 %
b1001110010100000000110011 v
b1001110010100000000110011 ~
0U
1"
#18000
b0 S
b0 1"
xU
0"
#18500
01
1H
b0x0 N
b0x0 X
b100 3
b100 w
b100 5"
b1011 4
b1011 x
b1011 4"
b11111 5
b11111 y
b10 /
b10 }
b10 #"
b10001011010111110110011 %
b10001011010111110110011 v
b10001011010111110110011 ~
0U
1"
#19000
b11111 S
b11111 1"
xU
0"
#19500
b11001 3
b11001 w
b11001 5"
b100 4
b100 x
b100 4"
b10011 5
b10011 y
b1100100100010100110110011 %
b1100100100010100110110011 v
b1100100100010100110110011 ~
0U
1"
#20000
b10011 S
b10011 1"
xU
0"
#20500
11
0H
bx00 N
bx00 X
b10100 3
b10100 w
b10100 5"
b10011 4
b10011 x
b10011 4"
b11110 5
b11110 y
b100 /
b100 }
b100 #"
b1010010011100111100110011 %
b1010010011100111100110011 v
b1010010011100111100110011 ~
0U
1"
#21000
b11110 S
b11110 1"
xU
0"
#21500
0!
01
1H
b0xx N
b0xx X
b110 3
b110 w
b110 5"
b10110 4
b10110 x
b10110 4"
b110 5
b110 y
b11 /
b11 }
b11 #"
b11010110011001100110011 %
b11010110011001100110011 v
b11010110011001100110011 ~
0U
1"
#22000
b110 S
b110 1"
xU
0"
#22500
1!
0H
b0 N
b0 X
b1001 3
b1001 w
b1001 5"
b1101 4
b1101 x
b1101 4"
b1001 5
b1001 y
b0 /
b0 }
b0 #"
b10011 z
b10011 %"
b100101101000010010010011 %
b100101101000010010010011 v
b100101101000010010010011 ~
0U
1"
#23000
b1001 S
b1001 1"
xU
0"
#23500
1H
b0x0 N
b0x0 X
b100 3
b100 w
b100 5"
b10101 5
b10101 y
b10 /
b10 }
b10 #"
b10100010001101010101010010011 %
b10100010001101010101010010011 v
b10100010001101010101010010011 ~
0U
1"
#24000
b10101 S
b10101 1"
xU
0"
#24500
x&"
0!
11
0H
bx0x N
bx0x X
b1010 3
b1010 w
b1010 5"
b11111 4
b11111 x
b11111 4"
b101 /
b101 }
b101 #"
b110011 z
b110011 %"
b101011111101101010110011 %
b101011111101101010110011 v
b101011111101101010110011 ~
0U
1"
#25000
xU
0"
#25500
xT
1D
b1011 3
b1011 w
b1011 5"
b11010 4
b11010 x
b11010 4"
b11110 5
b11110 y
b1000000101111010101111100110011 %
b1000000101111010101111100110011 v
b1000000101111010101111100110011 ~
0U
1"
#26000
b11110 S
b11110 1"
xU
0"
#26500
0&"
1!
01
1H
0T
b0x0 N
b0x0 X
0D
b1111 3
b1111 w
b1111 5"
b11101 4
b11101 x
b11101 4"
b1101 5
b1101 y
b10 /
b10 }
b10 #"
b111111101010011010110011 %
b111111101010011010110011 v
b111111101010011010110011 ~
0U
1"
#27000
b1101 S
b1101 1"
xU
0"
#27500
0!
b0xx N
b0xx X
b1110 3
b1110 w
b1110 5"
b10101 4
b10101 x
b10101 4"
b10111 5
b10111 y
b11 /
b11 }
b11 #"
b111010101011101110110011 %
b111010101011101110110011 v
b111010101011101110110011 ~
0U
1"
#28000
b10111 S
b10111 1"
xU
0"
#28500
1!
11
xT
bx0 N
bx0 X
1D
b11111 3
b11111 w
b11111 5"
b10010 4
b10010 x
b10010 4"
b11000 5
b11000 y
b110 /
b110 }
b110 #"
b10011 z
b10011 %"
b11101101111110010110110000010011 %
b11101101111110010110110000010011 v
b11101101111110010110110000010011 ~
0U
1"
#29000
b11000 S
b11000 1"
xU
0"
#29500
x&"
0!
01
0H
0T
b0x N
b0x X
0D
b1010 3
b1010 w
b1010 5"
b10000 4
b10000 x
b10000 4"
b10011 5
b10011 y
b1 /
b1 }
b1 #"
b101010000001100110010011 %
b101010000001100110010011 v
b101010000001100110010011 ~
0U
1"
#30000
b10011 S
b10011 1"
xU
0"
#30500
0&"
1!
11
bx00 N
bx00 X
b11110 3
b11110 w
b11110 5"
b10100 4
b10100 x
b10100 4"
b111 5
b111 y
b100 /
b100 }
b100 #"
b110011 z
b110011 %"
b1111010100100001110110011 %
b1111010100100001110110011 v
b1111010100100001110110011 ~
0U
1"
#31000
b111 S
b111 1"
xU
0"
#31500
x&"
0!
xT
bx0x N
bx0x X
1D
b1111 3
b1111 w
b1111 5"
b10010 4
b10010 x
b10010 4"
b11 5
b11 y
b101 /
b101 }
b101 #"
b1000000111110010101000110110011 %
b1000000111110010101000110110011 v
b1000000111110010101000110110011 ~
0U
1"
#32000
b11 S
b11 1"
xU
0"
#32500
0&"
1!
bx00 N
bx00 X
b10011 3
b10011 w
b10011 5"
b11101 4
b11101 x
b11101 4"
b10110 5
b10110 y
b100 /
b100 }
b100 #"
b10011 z
b10011 %"
b1100111001111101100101100010011 %
b1100111001111101100101100010011 v
b1100111001111101100101100010011 ~
0U
1"
#33000
b10110 S
b10110 1"
xU
0"
#33500
01
b0 N
b0 X
b100 3
b100 w
b100 5"
b101 4
b101 x
b101 4"
b10000 5
b10000 y
b0 /
b0 }
b0 #"
b110011 z
b110011 %"
b1000000010000101000100000110011 %
b1000000010000101000100000110011 v
b1000000010000101000100000110011 ~
0U
1"
#34000
b10000 S
b10000 1"
xU
0"
#34500
0!
1H
0T
b0xx N
b0xx X
0D
b1 3
b1 w
b1 5"
b111 4
b111 x
b111 4"
b11 /
b11 }
b11 #"
b10011 z
b10011 %"
b10101100000100111011100000010011 %
b10101100000100111011100000010011 v
b10101100000100111011100000010011 ~
0U
1"
#35000
xU
0"
#35500
x&"
0H
b0x N
b0x X
b1101 3
b1101 w
b1101 5"
b10101 4
b10101 x
b10101 4"
b0 5
b0 y
b1 /
b1 }
b1 #"
b110011 z
b110011 %"
b110110101001000000110011 %
b110110101001000000110011 v
b110110101001000000110011 ~
0U
1"
#36000
b0 S
b0 1"
xU
0"
#36500
0&"
11
1H
bx N
bx X
b11 3
b11 w
b11 5"
b10001 4
b10001 x
b10001 4"
b10101 5
b10101 y
b111 /
b111 }
b111 #"
b10011 z
b10011 %"
b110110001110001111101010010011 %
b110110001110001111101010010011 v
b110110001110001111101010010011 ~
0U
1"
#37000
b10101 S
b10101 1"
xU
0"
#37500
1!
0H
bx00 N
bx00 X
b1111 3
b1111 w
b1111 5"
b10 4
b10 x
b10 4"
b11 5
b11 y
b100 /
b100 }
b100 #"
b110011 z
b110011 %"
b111100010100000110110011 %
b111100010100000110110011 v
b111100010100000110110011 ~
0U
1"
#38000
b11 S
b11 1"
xU
0"
#38500
x&"
0!
xT
bx0x N
bx0x X
1D
b1000 3
b1000 w
b1000 5"
b1000 4
b1000 x
b1000 4"
b1111 5
b1111 y
b101 /
b101 }
b101 #"
b1000000100001000101011110110011 %
b1000000100001000101011110110011 v
b1000000100001000101011110110011 ~
0U
1"
#39000
b1111 S
b1111 1"
xU
0"
#39500
01
0T
b0x N
b0x X
0D
b11011 3
b11011 w
b11011 5"
b110 4
b110 x
b110 4"
b110 5
b110 y
b1 /
b1 }
b1 #"
b1101100110001001100110011 %
b1101100110001001100110011 v
b1101100110001001100110011 ~
0U
1"
#40000
b110 S
b110 1"
xU
0"
#40500
0&"
1!
1H
b0x0 N
b0x0 X
b1 3
b1 w
b1 5"
b1110 4
b1110 x
b1110 4"
b1101 5
b1101 y
b10 /
b10 }
b10 #"
b101110010011010110011 %
b101110010011010110011 v
b101110010011010110011 ~
0U
1"
#41000
b1101 S
b1101 1"
xU
0"
#41500
0H
xT
b0 N
b0 X
1D
b11 3
b11 w
b11 5"
b10011 4
b10011 x
b10011 4"
b11111 5
b11111 y
b0 /
b0 }
b0 #"
b10011 z
b10011 %"
b11000010001110011000111110010011 %
b11000010001110011000111110010011 v
b11000010001110011000111110010011 ~
0U
1"
#42000
b11111 S
b11111 1"
xU
0"
#42500
x&"
0!
0T
b0x N
b0x X
0D
b1100 3
b1100 w
b1100 5"
b10 4
b10 x
b10 4"
b11000 5
b11000 y
b1 /
b1 }
b1 #"
b110011 z
b110011 %"
b110000010001110000110011 %
b110000010001110000110011 v
b110000010001110000110011 ~
0U
1"
#43000
b11000 S
b11000 1"
xU
0"
#43500
0&"
1!
b0 N
b0 X
b10000 3
b10000 w
b10000 5"
b11010 4
b11010 x
b11010 4"
b1110 5
b1110 y
b0 /
b0 }
b0 #"
b1000011010000011100110011 %
b1000011010000011100110011 v
b1000011010000011100110011 ~
0U
1"
#44000
b1110 S
b1110 1"
xU
0"
#44500
x&"
0!
11
bx0x N
bx0x X
b1 3
b1 w
b1 5"
b1010 4
b1010 x
b1010 4"
b11101 5
b11101 y
b101 /
b101 }
b101 #"
b10011 z
b10011 %"
b101010101111010010011 %
b101010101111010010011 v
b101010101111010010011 ~
0U
1"
#45000
b11101 S
b11101 1"
xU
0"
#45500
0&"
1!
bx00 N
bx00 X
b10010 3
b10010 w
b10010 5"
b1110 4
b1110 x
b1110 4"
b1000 5
b1000 y
b100 /
b100 }
b100 #"
b110011 z
b110011 %"
b1001001110100010000110011 %
b1001001110100010000110011 v
b1001001110100010000110011 ~
0U
1"
#46000
b1000 S
b1000 1"
xU
0"
#46500
x&"
0!
01
b0x N
b0x X
b11101 3
b11101 w
b11101 5"
b11000 4
b11000 x
b11000 4"
b11101 5
b11101 y
b1 /
b1 }
b1 #"
b10011 z
b10011 %"
b1110111000001111010010011 %
b1110111000001111010010011 v
b1110111000001111010010011 ~
0U
1"
#47000
b11101 S
b11101 1"
xU
0"
#47500
0&"
11
1H
bx N
bx X
b10111 3
b10111 w
b10111 5"
b1001 4
b1001 x
b1001 4"
b1111 5
b1111 y
b111 /
b111 }
b111 #"
b110011 z
b110011 %"
b1011101001111011110110011 %
b1011101001111011110110011 v
b1011101001111011110110011 ~
0U
1"
#48000
b1111 S
b1111 1"
xU
0"
#48500
1!
01
0H
b0 N
b0 X
b1 3
b1 w
b1 5"
b10111 4
b10111 x
b10111 4"
b11110 5
b11110 y
b0 /
b0 }
b0 #"
b110111000111100110011 %
b110111000111100110011 v
b110111000111100110011 ~
0U
1"
#49000
b11110 S
b11110 1"
xU
0"
#49500
0!
11
1H
bx N
bx X
b10001 3
b10001 w
b10001 5"
b10100 4
b10100 x
b10100 4"
b10111 5
b10111 y
b111 /
b111 }
b111 #"
b1000110100111101110110011 %
b1000110100111101110110011 v
b1000110100111101110110011 ~
0U
1"
#50000
b10111 S
b10111 1"
xU
0"
#50500
1!
0H
xT
bx00 N
bx00 X
1D
b10 4
b10 x
b10 4"
b1 5
b1 y
b100 /
b100 }
b100 #"
b10011 z
b10011 %"
b11110111000100010100000010010011 %
b11110111000100010100000010010011 v
b11110111000100010100000010010011 ~
0U
1"
#51000
b1 S
b1 1"
xU
0"
#51500
0T
0D
b1110 3
b1110 w
b1110 5"
b10000 4
b10000 x
b10000 4"
b11000 5
b11000 y
b110011 z
b110011 %"
b111010000100110000110011 %
b111010000100110000110011 v
b111010000100110000110011 ~
0U
1"
#52000
b11000 S
b11000 1"
xU
0"
#52500
1H
bx0 N
bx0 X
b0 3
b0 w
b0 5"
b11011 4
b11011 x
b11011 4"
b10011 5
b10011 y
b110 /
b110 }
b110 #"
b11011110100110110011 %
b11011110100110110011 v
b11011110100110110011 ~
0U
1"
#53000
b10011 S
b10011 1"
xU
0"
#53500
x&"
0!
0H
bx0x N
bx0x X
b10001 3
b10001 w
b10001 5"
b11100 4
b11100 x
b11100 4"
b11001 5
b11001 y
b101 /
b101 }
b101 #"
b1000111100101110010110011 %
b1000111100101110010110011 v
b1000111100101110010110011 ~
0U
1"
#54000
b11001 S
b11001 1"
xU
0"
#54500
xT
1D
b1000 3
b1000 w
b1000 5"
b10010 4
b10010 x
b10010 4"
b1001 5
b1001 y
b1000000100010010101010010110011 %
b1000000100010010101010010110011 v
b1000000100010010101010010110011 ~
0U
1"
#55000
b1001 S
b1001 1"
xU
0"
#55500
0&"
1!
1H
bx0 N
bx0 X
b100 3
b100 w
b100 5"
b11010 4
b11010 x
b11010 4"
b10010 5
b10010 y
b110 /
b110 }
b110 #"
b10011 z
b10011 %"
b11100010010011010110100100010011 %
b11100010010011010110100100010011 v
b11100010010011010110100100010011 ~
0U
1"
#56000
b10010 S
b10010 1"
xU
0"
#56500
01
0T
b0x0 N
b0x0 X
0D
b10110 3
b10110 w
b10110 5"
b0 4
b0 x
b0 4"
b10111 5
b10111 y
b10 /
b10 }
b10 #"
b11001011000000010101110010011 %
b11001011000000010101110010011 v
b11001011000000010101110010011 ~
0U
1"
#57000
b10111 S
b10111 1"
xU
0"
#57500
x&"
0!
11
0H
bx0x N
bx0x X
b1100 4
b1100 x
b1100 4"
b10000 5
b10000 y
b101 /
b101 }
b101 #"
b1011001100101100000010011 %
b1011001100101100000010011 v
b1011001100101100000010011 ~
0U
1"
#58000
b10000 S
b10000 1"
xU
0"
#58500
0&"
1!
bx00 N
bx00 X
b1001 3
b1001 w
b1001 5"
b1001 4
b1001 x
b1001 4"
b11111 5
b11111 y
b100 /
b100 }
b100 #"
b110011 z
b110011 %"
b100101001100111110110011 %
b100101001100111110110011 v
b100101001100111110110011 ~
0U
1"
#59000
b11111 S
b11111 1"
xU
0"
#59500
01
b0 N
b0 X
b10001 3
b10001 w
b10001 5"
b11111 4
b11111 x
b11111 4"
b1010 5
b1010 y
b0 /
b0 }
b0 #"
b10011 z
b10011 %"
b10100001000111111000010100010011 %
b10100001000111111000010100010011 v
b10100001000111111000010100010011 ~
0U
1"
#60000
b1010 S
b1010 1"
xU
0"
#60500
0!
1H
b0xx N
b0xx X
b111 3
b111 w
b111 5"
b1 4
b1 x
b1 4"
b1 5
b1 y
b11 /
b11 }
b11 #"
b111110011100001011000010010011 %
b111110011100001011000010010011 v
b111110011100001011000010010011 ~
0U
1"
#61000
b1 S
b1 1"
xU
0"
#61500
1!
0H
b0 N
b0 X
b11001 3
b11001 w
b11001 5"
b0 4
b0 x
b0 4"
b0 /
b0 }
b0 #"
b110011 z
b110011 %"
b1100100000000000010110011 %
b1100100000000000010110011 v
b1100100000000000010110011 ~
0U
1"
#62000
xU
0"
#62500
xT
1D
b11000 3
b11000 w
b11000 5"
b111 4
b111 x
b111 4"
b100 5
b100 y
b1000001100000111000001000110011 %
b1000001100000111000001000110011 v
b1000001100000111000001000110011 ~
0U
1"
#63000
b100 S
b100 1"
xU
0"
#63500
1H
0T
b0x0 N
b0x0 X
0D
b11 3
b11 w
b11 5"
b1 4
b1 x
b1 4"
b1101 5
b1101 y
b10 /
b10 }
b10 #"
b1100001010011010110011 %
b1100001010011010110011 v
b1100001010011010110011 ~
0U
1"
#64000
b1101 S
b1101 1"
xU
0"
